code/bbs/bbs_top.vcd
$date
	Sun May  2 22:52:21 2021
$end
$version
	Icarus Verilog
$end
$timescale
	1ps
$end
$scope module bbs_tester $end
$scope module dut $end
$var wire 1 ! clk $end
$var wire 1 " reset $end
$var wire 16 # seed [15:0] $end
$var wire 1 $ wen $end
$var wire 1 % store_seed $end
$var wire 1 & seed_valid $end
$var wire 1 ' res_valid $end
$var wire 1 ( mm_start $end
$var wire 16 ) mm_out [15:0] $end
$var wire 1 * mm_done $end
$var wire 1 + gcd_rdy $end
$var reg 16 , out [15:0] $end
$scope module ctrl $end
$var wire 1 ! clk $end
$var wire 1 " reset $end
$var wire 1 - seed_val $end
$var wire 1 * mm_done $end
$var wire 1 + gcd_rdy $end
$var reg 1 ( mm_start $end
$var reg 2 . next_state [1:0] $end
$var reg 2 / state [1:0] $end
$var reg 1 % store_seed $end
$var reg 1 $ wen $end
$upscope $end
$scope module mm $end
$var wire 1 ! clk $end
$var wire 1 * done $end
$var wire 1 " reset $end
$var wire 1 ( start $end
$var wire 16 0 x_val [15:0] $end
$var wire 16 1 out [15:0] $end
$var reg 1 2 fake_done $end
$upscope $end
$scope module seed_v $end
$var wire 1 ! clk $end
$var wire 16 3 m [15:0] $end
$var wire 1 " reset $end
$var wire 1 ' result_valid $end
$var wire 16 4 seed [15:0] $end
$var wire 1 5 test_out $end
$var wire 1 & seed_valid $end
$var wire 1 6 result_val $end
$var wire 16 7 gcd_result [15:0] $end
$var wire 1 + gcd_rdy $end
$scope module gcd $end
$var wire 1 ! clk $end
$var wire 16 8 operands_bits_A [15:0] $end
$var wire 16 9 operands_bits_B [15:0] $end
$var wire 1 : operands_val $end
$var wire 1 " reset $end
$var wire 1 ; result_rdy $end
$var wire 1 6 result_val $end
$var wire 16 < result_bits_data [15:0] $end
$var wire 1 + operands_rdy $end
$var wire 1 = B_zero $end
$var wire 1 > B_mux_sel $end
$var wire 1 ? B_en $end
$var wire 2 @ A_mux_sel [1:0] $end
$var wire 1 A A_lt_B $end
$var wire 1 B A_en $end
$scope module GCDctrl0 $end
$var wire 1 ! clk $end
$var wire 1 : operands_val $end
$var wire 1 " reset $end
$var wire 1 ; result_rdy $end
$var wire 1 = B_zero $end
$var wire 1 A A_lt_B $end
$var reg 1 B A_en $end
$var reg 2 C A_mux_sel [1:0] $end
$var reg 1 ? B_en $end
$var reg 1 > B_mux_sel $end
$var reg 2 D nextstate [1:0] $end
$var reg 1 + operands_rdy $end
$var reg 1 6 result_val $end
$var reg 2 E state [1:0] $end
$upscope $end
$scope module GCDdpath0 $end
$var wire 1 B A_en $end
$var wire 2 F A_mux_sel [1:0] $end
$var wire 1 ? B_en $end
$var wire 1 > B_mux_sel $end
$var wire 1 ! clk $end
$var wire 16 G operands_bits_A [15:0] $end
$var wire 16 H operands_bits_B [15:0] $end
$var wire 1 " reset $end
$var wire 16 I result_bits_data [15:0] $end
$var wire 16 J sub_out [15:0] $end
$var wire 1 = B_zero $end
$var wire 16 K B_next [15:0] $end
$var wire 16 L A_next [15:0] $end
$var wire 1 A A_lt_B $end
$var reg 16 M A_reg [15:0] $end
$var reg 16 N B_reg [15:0] $end
$upscope $end
$upscope $end
$upscope $end
$upscope $end
$upscope $end
$enddefinitions $end
#0
$dumpvars
bx N
bx M
bx L
b11111101 K
bx J
bx I
b11111101 H
bx G
b0 F
bx E
bx D
b0 C
0B
xA
b0 @
0?
0>
x=
bx <
1;
1:
b11111101 9
bx 8
bx 7
06
x5
bx 4
b11111101 3
x2
bx 1
bx 0
bx /
bx .
0-
bx ,
0+
x*
bx )
x(
0'
x&
x%
x$
bx #
0"
0!
$end
#10000
1=
0A
0&
05
1?
1B
1+
b0 D
0%
0(
0$
b1 .
b0 J
b0 N
b0 7
b0 <
b0 I
b0 M
b10 E
b0 /
b0 )
b0 1
b0 ,
b0 0
0*
02
1"
1!
#20000
0!
#30000
b11 L
b11 #
b11 4
b11 8
b11 G
0"
1!
#40000
0!
#50000
b11 K
b11111101 L
b1 @
b1 C
b1 F
1>
0+
1?
1B
1%
0=
1A
15
b0 E
b1 /
b11111101 N
b1111111100000110 J
b11 7
b11 <
b11 I
b11 M
1*
12
1!
#60000
0!
#70000
b11111010 L
b11111101 K
b10 @
b10 C
b10 F
0>
0?
1B
0A
b1001 )
b1001 1
b11 ,
b11 0
b11 N
b11111010 J
b11111101 7
b11111101 <
b11111101 I
b11111101 M
0*
02
1!
#80000
0!
#90000
b11110111 L
05
b11110111 J
b11111010 7
b11111010 <
b11111010 I
b11111010 M
1*
12
1!
#100000
0!
#110000
b11110100 L
15
b11110100 J
b11110111 7
b11110111 <
b11110111 I
b11110111 M
0*
02
1!
#120000
0!
#130000
b11110001 L
05
b11110001 J
b11110100 7
b11110100 <
b11110100 I
b11110100 M
1*
12
1!
#140000
0!
#150000
b11101110 L
15
b11101110 J
b11110001 7
b11110001 <
b11110001 I
b11110001 M
0*
02
1!
#160000
0!
#170000
b11101011 L
05
b11101011 J
b11101110 7
b11101110 <
b11101110 I
b11101110 M
1*
12
1!
#180000
0!
#190000
b11101000 L
15
b11101000 J
b11101011 7
b11101011 <
b11101011 I
b11101011 M
0*
02
1!
#200000
0!
#210000
b11100101 L
05
b11100101 J
b11101000 7
b11101000 <
b11101000 I
b11101000 M
1*
12
1!
#220000
0!
#230000
b11100010 L
15
b11100010 J
b11100101 7
b11100101 <
b11100101 I
b11100101 M
0*
02
1!
#240000
0!
#250000
b11011111 L
05
b11011111 J
b11100010 7
b11100010 <
b11100010 I
b11100010 M
1*
12
1!
#260000
0!
#270000
b11011100 L
15
b11011100 J
b11011111 7
b11011111 <
b11011111 I
b11011111 M
0*
02
1!
#280000
0!
#290000
b11011001 L
05
b11011001 J
b11011100 7
b11011100 <
b11011100 I
b11011100 M
1*
12
1!
#300000
0!
#310000
b11010110 L
15
b11010110 J
b11011001 7
b11011001 <
b11011001 I
b11011001 M
0*
02
1!
#320000
0!
#330000
b11010011 L
05
b11010011 J
b11010110 7
b11010110 <
b11010110 I
b11010110 M
1*
12
1!
#340000
0!
#350000
b11010000 L
15
b11010000 J
b11010011 7
b11010011 <
b11010011 I
b11010011 M
0*
02
1!
#360000
0!
#370000
b11001101 L
05
b11001101 J
b11010000 7
b11010000 <
b11010000 I
b11010000 M
1*
12
1!
#380000
0!
#390000
b11001010 L
15
b11001010 J
b11001101 7
b11001101 <
b11001101 I
b11001101 M
0*
02
1!
#400000
0!
#410000
b11000111 L
05
b11000111 J
b11001010 7
b11001010 <
b11001010 I
b11001010 M
1*
12
1!
#420000
0!
#430000
b11000100 L
15
b11000100 J
b11000111 7
b11000111 <
b11000111 I
b11000111 M
0*
02
1!
#440000
0!
#450000
b11000001 L
05
b11000001 J
b11000100 7
b11000100 <
b11000100 I
b11000100 M
1*
12
1!
#460000
0!
#470000
b10111110 L
15
b10111110 J
b11000001 7
b11000001 <
b11000001 I
b11000001 M
0*
02
1!
#480000
0!
#490000
b10111011 L
05
b10111011 J
b10111110 7
b10111110 <
b10111110 I
b10111110 M
1*
12
1!
#500000
0!
#510000
b10111000 L
15
b10111000 J
b10111011 7
b10111011 <
b10111011 I
b10111011 M
0*
02
1!
#520000
0!
#530000
b10110101 L
05
b10110101 J
b10111000 7
b10111000 <
b10111000 I
b10111000 M
1*
12
1!
#540000
0!
#550000
b10110010 L
15
b10110010 J
b10110101 7
b10110101 <
b10110101 I
b10110101 M
0*
02
1!
#560000
0!
#570000
b10101111 L
05
b10101111 J
b10110010 7
b10110010 <
b10110010 I
b10110010 M
1*
12
1!
#580000
0!
#590000
b10101100 L
15
b10101100 J
b10101111 7
b10101111 <
b10101111 I
b10101111 M
0*
02
1!
#600000
0!
#610000
b10101001 L
05
b10101001 J
b10101100 7
b10101100 <
b10101100 I
b10101100 M
1*
12
1!
#620000
0!
#630000
b10100110 L
15
b10100110 J
b10101001 7
b10101001 <
b10101001 I
b10101001 M
0*
02
1!
#640000
0!
#650000
b10100011 L
05
b10100011 J
b10100110 7
b10100110 <
b10100110 I
b10100110 M
1*
12
1!
#660000
0!
#670000
b10100000 L
15
b10100000 J
b10100011 7
b10100011 <
b10100011 I
b10100011 M
0*
02
1!
#680000
0!
#690000
b10011101 L
05
b10011101 J
b10100000 7
b10100000 <
b10100000 I
b10100000 M
1*
12
1!
#700000
0!
#710000
b10011010 L
15
b10011010 J
b10011101 7
b10011101 <
b10011101 I
b10011101 M
0*
02
1!
#720000
0!
#730000
b10010111 L
05
b10010111 J
b10011010 7
b10011010 <
b10011010 I
b10011010 M
1*
12
1!
#740000
0!
#750000
b10010100 L
15
b10010100 J
b10010111 7
b10010111 <
b10010111 I
b10010111 M
0*
02
1!
#760000
0!
#770000
b10010001 L
05
b10010001 J
b10010100 7
b10010100 <
b10010100 I
b10010100 M
1*
12
1!
#780000
0!
#790000
b10001110 L
15
b10001110 J
b10010001 7
b10010001 <
b10010001 I
b10010001 M
0*
02
1!
#800000
0!
#810000
b10001011 L
05
b10001011 J
b10001110 7
b10001110 <
b10001110 I
b10001110 M
1*
12
1!
#820000
0!
#830000
b10001000 L
15
b10001000 J
b10001011 7
b10001011 <
b10001011 I
b10001011 M
0*
02
1!
#840000
0!
#850000
b10000101 L
05
b10000101 J
b10001000 7
b10001000 <
b10001000 I
b10001000 M
1*
12
1!
#860000
0!
#870000
b10000010 L
15
b10000010 J
b10000101 7
b10000101 <
b10000101 I
b10000101 M
0*
02
1!
#880000
0!
#890000
b1111111 L
05
b1111111 J
b10000010 7
b10000010 <
b10000010 I
b10000010 M
1*
12
1!
#900000
0!
#910000
b1111100 L
15
b1111100 J
b1111111 7
b1111111 <
b1111111 I
b1111111 M
0*
02
1!
#920000
0!
#930000
b1111001 L
05
b1111001 J
b1111100 7
b1111100 <
b1111100 I
b1111100 M
1*
12
1!
#940000
0!
#950000
b1110110 L
15
b1110110 J
b1111001 7
b1111001 <
b1111001 I
b1111001 M
0*
02
1!
#960000
0!
#970000
b1110011 L
05
b1110011 J
b1110110 7
b1110110 <
b1110110 I
b1110110 M
1*
12
1!
#980000
0!
#990000
b1110000 L
15
b1110000 J
b1110011 7
b1110011 <
b1110011 I
b1110011 M
0*
02
1!
#1000000
0!
#1010000
b1101101 L
05
b1101101 J
b1110000 7
b1110000 <
b1110000 I
b1110000 M
1*
12
1!
#1020000
0!
#1030000
b1101010 L
15
b1101010 J
b1101101 7
b1101101 <
b1101101 I
b1101101 M
0*
02
1!
#1040000
0!
#1050000
b1100111 L
05
b1100111 J
b1101010 7
b1101010 <
b1101010 I
b1101010 M
1*
12
1!
#1060000
0!
#1070000
b1100100 L
15
b1100100 J
b1100111 7
b1100111 <
b1100111 I
b1100111 M
0*
02
1!
#1080000
0!
#1090000
b1100001 L
05
b1100001 J
b1100100 7
b1100100 <
b1100100 I
b1100100 M
1*
12
1!
#1100000
0!
#1110000
b1011110 L
15
b1011110 J
b1100001 7
b1100001 <
b1100001 I
b1100001 M
0*
02
1!
#1120000
0!
#1130000
b1011011 L
05
b1011011 J
b1011110 7
b1011110 <
b1011110 I
b1011110 M
1*
12
1!
#1140000
0!
#1150000
b1011000 L
15
b1011000 J
b1011011 7
b1011011 <
b1011011 I
b1011011 M
0*
02
1!
#1160000
0!
#1170000
b1010101 L
05
b1010101 J
b1011000 7
b1011000 <
b1011000 I
b1011000 M
1*
12
1!
#1180000
0!
#1190000
b1010010 L
15
b1010010 J
b1010101 7
b1010101 <
b1010101 I
b1010101 M
0*
02
1!
#1200000
0!
#1210000
b1001111 L
05
b1001111 J
b1010010 7
b1010010 <
b1010010 I
b1010010 M
1*
12
1!
#1220000
0!
#1230000
b1001100 L
15
b1001100 J
b1001111 7
b1001111 <
b1001111 I
b1001111 M
0*
02
1!
#1240000
0!
#1250000
b1001001 L
05
b1001001 J
b1001100 7
b1001100 <
b1001100 I
b1001100 M
1*
12
1!
#1260000
0!
#1270000
b1000110 L
15
b1000110 J
b1001001 7
b1001001 <
b1001001 I
b1001001 M
0*
02
1!
#1280000
0!
#1290000
b1000011 L
05
b1000011 J
b1000110 7
b1000110 <
b1000110 I
b1000110 M
1*
12
1!
#1300000
0!
#1310000
b1000000 L
15
b1000000 J
b1000011 7
b1000011 <
b1000011 I
b1000011 M
0*
02
1!
#1320000
0!
#1330000
b111101 L
05
b111101 J
b1000000 7
b1000000 <
b1000000 I
b1000000 M
1*
12
1!
#1340000
0!
#1350000
b111010 L
15
b111010 J
b111101 7
b111101 <
b111101 I
b111101 M
0*
02
1!
#1360000
0!
#1370000
b110111 L
05
b110111 J
b111010 7
b111010 <
b111010 I
b111010 M
1*
12
1!
#1380000
0!
#1390000
b110100 L
15
b110100 J
b110111 7
b110111 <
b110111 I
b110111 M
0*
02
1!
#1400000
0!
#1410000
b110001 L
05
b110001 J
b110100 7
b110100 <
b110100 I
b110100 M
1*
12
1!
#1420000
0!
#1430000
b101110 L
15
b101110 J
b110001 7
b110001 <
b110001 I
b110001 M
0*
02
1!
#1440000
0!
#1450000
b101011 L
05
b101011 J
b101110 7
b101110 <
b101110 I
b101110 M
1*
12
1!
#1460000
0!
#1470000
b101000 L
15
b101000 J
b101011 7
b101011 <
b101011 I
b101011 M
0*
02
1!
#1480000
0!
#1490000
b100101 L
05
b100101 J
b101000 7
b101000 <
b101000 I
b101000 M
1*
12
1!
#1500000
0!
#1510000
b100010 L
15
b100010 J
b100101 7
b100101 <
b100101 I
b100101 M
0*
02
1!
#1520000
0!
#1530000
b11111 L
05
b11111 J
b100010 7
b100010 <
b100010 I
b100010 M
1*
12
1!
#1540000
0!
#1550000
b11100 L
15
b11100 J
b11111 7
b11111 <
b11111 I
b11111 M
0*
02
1!
#1560000
0!
#1570000
b11001 L
05
b11001 J
b11100 7
b11100 <
b11100 I
b11100 M
1*
12
1!
#1580000
0!
#1590000
b10110 L
15
b10110 J
b11001 7
b11001 <
b11001 I
b11001 M
0*
02
1!
#1600000
0!
#1610000
b10011 L
05
b10011 J
b10110 7
b10110 <
b10110 I
b10110 M
1*
12
1!
#1620000
0!
#1630000
b10000 L
15
b10000 J
b10011 7
b10011 <
b10011 I
b10011 M
0*
02
1!
#1640000
0!
#1650000
b1101 L
05
b1101 J
b10000 7
b10000 <
b10000 I
b10000 M
1*
12
1!
#1660000
0!
#1670000
b1010 L
15
b1010 J
b1101 7
b1101 <
b1101 I
b1101 M
0*
02
1!
#1680000
0!
#1690000
b111 L
05
b111 J
b1010 7
b1010 <
b1010 I
b1010 M
1*
12
1!
#1700000
0!
#1710000
b100 L
15
b100 J
b111 7
b111 <
b111 I
b111 M
0*
02
1!
#1720000
0!
#1730000
b1 L
05
b1 J
b100 7
b100 <
b100 I
b100 M
1*
12
1!
#1740000
0!
#1750000
b1 K
b11 L
1?
1>
b1 @
b1 C
b1 F
1B
1A
1&
15
b1111111111111110 J
b1 7
b1 <
b1 I
b1 M
0*
02
1!
#1760000
0!
#1770000
b10 L
b11111101 K
b10 @
b10 C
b10 F
0>
0?
1B
0A
0&
b1 N
b10 J
b11 7
b11 <
b11 I
b11 M
1*
12
1!
#1780000
0!
#1790000
b1 L
05
b1 J
b10 7
b10 <
b10 I
b10 M
0*
02
1!
#1800000
0!
#1810000
b0 L
1&
15
b0 J
b1 7
b1 <
b1 I
b1 M
1*
12
1!
#1820000
0!
#1830000
b0 K
b1 L
1?
1>
b1 @
b1 C
b1 F
1B
1A
0&
05
b1111111111111111 J
b0 7
b0 <
b0 I
b0 M
0*
02
1!
#1840000
0!
#1850000
b11 L
b11111101 K
b11 D
b0 @
b0 C
b0 F
0>
0?
0B
1=
0A
1&
15
b0 N
b1 J
b1 7
b1 <
b1 I
b1 M
1*
12
1!
#1860000
0!
#1870000
b10 .
1-
b10 D
1'
16
b11 E
0*
02
1!
#1880000
0!
#1890000
0-
1?
1B
b0 D
1+
0'
06
b11 .
1$
0%
1(
b10 E
b10 /
1*
12
1!
#1900000
0!
#1910000
b11 K
b11111101 L
b1 @
b1 C
b1 F
1>
0+
1?
1B
0=
1A
0&
b1010001 )
b1010001 1
b1001 ,
b1001 0
b11 /
b0 E
b11111101 N
b1111111100000110 J
b11 7
b11 <
b11 I
b11 M
b10 .
0$
0*
02
1!
#1920000
0!
#1930000
b11111010 L
b11111101 K
b10 @
b10 C
b10 F
0>
0?
1B
b11 .
1$
0A
b10 /
b11 N
b11111010 J
b11111101 7
b11111101 <
b11111101 I
b11111101 M
1*
12
1!
#1940000
0!
#1950000
b11110111 L
05
b11101100 )
b11101100 1
b1010001 ,
b1010001 0
b11 /
b11110111 J
b11111010 7
b11111010 <
b11111010 I
b11111010 M
b10 .
0$
0*
02
1!
#1960000
0!
#1970000
b11110100 L
b11 .
1$
15
b10 /
b11110100 J
b11110111 7
b11110111 <
b11110111 I
b11110111 M
1*
12
1!
#1980000
0!
#1990000
b11110001 L
05
b100100 )
b100100 1
b11101100 ,
b11101100 0
b11 /
b11110001 J
b11110100 7
b11110100 <
b11110100 I
b11110100 M
b10 .
0$
0*
02
1!
#2000000
0!
#2010000
b11101110 L
b11 .
1$
15
b10 /
b11101110 J
b11110001 7
b11110001 <
b11110001 I
b11110001 M
1*
12
1!
#2020000
0!
#2030000
b11101011 L
05
b11111 )
b11111 1
b100100 ,
b100100 0
b11 /
b11101011 J
b11101110 7
b11101110 <
b11101110 I
b11101110 M
b10 .
0$
0*
02
1!
#2040000
0!
#2050000
b11101000 L
b11 .
1$
15
b10 /
b11101000 J
b11101011 7
b11101011 <
b11101011 I
b11101011 M
1*
12
1!
#2060000
0!
#2070000
b11100101 L
05
b11001010 )
b11001010 1
b11111 ,
b11111 0
b11 /
b11100101 J
b11101000 7
b11101000 <
b11101000 I
b11101000 M
b10 .
0$
0*
02
1!
#2080000
0!
#2090000
b11100010 L
b11 .
1$
15
b10 /
b11100010 J
b11100101 7
b11100101 <
b11100101 I
b11100101 M
1*
12
1!
#2100000
0!
#2110000
b11011111 L
05
b1000111 )
b1000111 1
b11001010 ,
b11001010 0
b11 /
b11011111 J
b11100010 7
b11100010 <
b11100010 I
b11100010 M
b10 .
0$
0*
02
1!
#2120000
0!
#2130000
b11011100 L
b11 .
1$
15
b10 /
b11011100 J
b11011111 7
b11011111 <
b11011111 I
b11011111 M
1*
12
1!
#2140000
0!
#2150000
b11011001 L
05
b11101010 )
b11101010 1
b1000111 ,
b1000111 0
b11 /
b11011001 J
b11011100 7
b11011100 <
b11011100 I
b11011100 M
b10 .
0$
0*
02
1!
#2160000
0!
#2170000
b11010110 L
b11 .
1$
15
b10 /
b11010110 J
b11011001 7
b11011001 <
b11011001 I
b11011001 M
1*
12
1!
#2180000
0!
#2190000
b11010011 L
05
b1101100 )
b1101100 1
b11101010 ,
b11101010 0
b11 /
b11010011 J
b11010110 7
b11010110 <
b11010110 I
b11010110 M
b10 .
0$
0*
02
1!
#2200000
0!
#2210000
b11010000 L
b11 .
1$
15
b10 /
b11010000 J
b11010011 7
b11010011 <
b11010011 I
b11010011 M
1*
12
1!
#2220000
0!
#2230000
b11001101 L
05
b11010 )
b11010 1
b1101100 ,
b1101100 0
b11 /
b11001101 J
b11010000 7
b11010000 <
b11010000 I
b11010000 M
b10 .
0$
0*
02
1!
#2240000
0!
#2250000
b11001010 L
b11 .
1$
15
b10 /
b11001010 J
b11001101 7
b11001101 <
b11001101 I
b11001101 M
1*
12
1!
#2260000
0!
#2270000
b11000111 L
05
b10101010 )
b10101010 1
b11010 ,
b11010 0
b11 /
b11000111 J
b11001010 7
b11001010 <
b11001010 I
b11001010 M
b10 .
0$
0*
02
1!
#2280000
0!
#2290000
b11000100 L
b11 .
1$
15
b10 /
b11000100 J
b11000111 7
b11000111 <
b11000111 I
b11000111 M
1*
12
1!
#2300000
0!
#2310000
b11000001 L
05
b111010 )
b111010 1
b10101010 ,
b10101010 0
b11 /
b11000001 J
b11000100 7
b11000100 <
b11000100 I
b11000100 M
b10 .
0$
0*
02
1!
#2320000
0!
#2330000
b10111110 L
b11 .
1$
15
b10 /
b10111110 J
b11000001 7
b11000001 <
b11000001 I
b11000001 M
1*
12
1!
#2340000
0!
#2350000
b10111011 L
05
b1001011 )
b1001011 1
b111010 ,
b111010 0
b11 /
b10111011 J
b10111110 7
b10111110 <
b10111110 I
b10111110 M
b10 .
0$
0*
02
1!
#2360000
0!
#2370000
b10111000 L
b11 .
1$
15
b10 /
b10111000 J
b10111011 7
b10111011 <
b10111011 I
b10111011 M
1*
12
1!
#2380000
0!
#2390000
b10110101 L
05
b111011 )
b111011 1
b1001011 ,
b1001011 0
b11 /
b10110101 J
b10111000 7
b10111000 <
b10111000 I
b10111000 M
b10 .
0$
0*
02
1!
#2400000
0!
#2410000
b10110010 L
b11 .
1$
15
b10 /
b10110010 J
b10110101 7
b10110101 <
b10110101 I
b10110101 M
1*
12
1!
#2420000
0!
#2430000
b10101111 L
05
b11000000 )
b11000000 1
b111011 ,
b111011 0
b11 /
b10101111 J
b10110010 7
b10110010 <
b10110010 I
b10110010 M
b10 .
0$
0*
02
1!
#2440000
0!
#2450000
b10101100 L
b11 .
1$
15
b10 /
b10101100 J
b10101111 7
b10101111 <
b10101111 I
b10101111 M
1*
12
1!
#2460000
0!
#2470000
b10101001 L
05
b10110011 )
b10110011 1
b11000000 ,
b11000000 0
b11 /
b10101001 J
b10101100 7
b10101100 <
b10101100 I
b10101100 M
b10 .
0$
0*
02
1!
#2480000
0!
#2490000
b10100110 L
b11 .
1$
15
b10 /
b10100110 J
b10101001 7
b10101001 <
b10101001 I
b10101001 M
1*
12
1!
#2500000
0!
#2510000
b10100011 L
05
b10100011 )
b10100011 1
b10110011 ,
b10110011 0
b11 /
b10100011 J
b10100110 7
b10100110 <
b10100110 I
b10100110 M
b10 .
0$
0*
02
1!
#2520000
0!
#2530000
b10100000 L
b11 .
1$
15
b10 /
b10100000 J
b10100011 7
b10100011 <
b10100011 I
b10100011 M
1*
12
1!
#2540000
0!
#2550000
b10011101 L
05
b100 )
b100 1
b10100011 ,
b10100011 0
b11 /
b10011101 J
b10100000 7
b10100000 <
b10100000 I
b10100000 M
b10 .
0$
0*
02
1!
#2560000
0!
#2570000
b10011010 L
b11 .
1$
15
b10 /
b10011010 J
b10011101 7
b10011101 <
b10011101 I
b10011101 M
1*
12
1!
#2580000
0!
#2590000
b10010111 L
05
b10000 )
b10000 1
b100 ,
b100 0
b11 /
b10010111 J
b10011010 7
b10011010 <
b10011010 I
b10011010 M
b10 .
0$
0*
02
1!
#2600000
0!
#2610000
b10010100 L
b11 .
1$
15
b10 /
b10010100 J
b10010111 7
b10010111 <
b10010111 I
b10010111 M
1*
12
1!
#2620000
0!
#2630000
b10010001 L
05
b11 )
b11 1
b10000 ,
b10000 0
b11 /
b10010001 J
b10010100 7
b10010100 <
b10010100 I
b10010100 M
b10 .
0$
0*
02
1!
#2640000
0!
#2650000
b10001110 L
b11 .
1$
15
b10 /
b10001110 J
b10010001 7
b10010001 <
b10010001 I
b10010001 M
1*
12
1!
#2660000
0!
#2670000
b10001011 L
05
b1001 )
b1001 1
b11 ,
b11 0
b11 /
b10001011 J
b10001110 7
b10001110 <
b10001110 I
b10001110 M
b10 .
0$
0*
02
1!
#2680000
0!
#2690000
b10001000 L
b11 .
1$
15
b10 /
b10001000 J
b10001011 7
b10001011 <
b10001011 I
b10001011 M
1*
12
1!
#2700000
0!
#2710000
b10000101 L
05
b1010001 )
b1010001 1
b1001 ,
b1001 0
b11 /
b10000101 J
b10001000 7
b10001000 <
b10001000 I
b10001000 M
b10 .
0$
0*
02
1!
#2720000
0!
#2730000
b10000010 L
b11 .
1$
15
b10 /
b10000010 J
b10000101 7
b10000101 <
b10000101 I
b10000101 M
1*
12
1!
#2740000
0!
#2750000
b1111111 L
05
b11101100 )
b11101100 1
b1010001 ,
b1010001 0
b11 /
b1111111 J
b10000010 7
b10000010 <
b10000010 I
b10000010 M
b10 .
0$
0*
02
1!
#2760000
0!
#2770000
b1111100 L
b11 .
1$
15
b10 /
b1111100 J
b1111111 7
b1111111 <
b1111111 I
b1111111 M
1*
12
1!
#2780000
0!
#2790000
b1111001 L
05
b100100 )
b100100 1
b11101100 ,
b11101100 0
b11 /
b1111001 J
b1111100 7
b1111100 <
b1111100 I
b1111100 M
b10 .
0$
0*
02
1!
#2800000
0!
#2810000
b1110110 L
b11 .
1$
15
b10 /
b1110110 J
b1111001 7
b1111001 <
b1111001 I
b1111001 M
1*
12
1!
#2820000
0!
#2830000
b1110011 L
05
b11111 )
b11111 1
b100100 ,
b100100 0
b11 /
b1110011 J
b1110110 7
b1110110 <
b1110110 I
b1110110 M
b10 .
0$
0*
02
1!
#2840000
0!
#2850000
b1110000 L
b11 .
1$
15
b10 /
b1110000 J
b1110011 7
b1110011 <
b1110011 I
b1110011 M
1*
12
1!
#2860000
0!
#2870000
b1101101 L
05
b11001010 )
b11001010 1
b11111 ,
b11111 0
b11 /
b1101101 J
b1110000 7
b1110000 <
b1110000 I
b1110000 M
b10 .
0$
0*
02
1!
#2880000
0!
#2890000
b1101010 L
b11 .
1$
15
b10 /
b1101010 J
b1101101 7
b1101101 <
b1101101 I
b1101101 M
1*
12
1!
#2900000
0!
#2910000
b1100111 L
05
b1000111 )
b1000111 1
b11001010 ,
b11001010 0
b11 /
b1100111 J
b1101010 7
b1101010 <
b1101010 I
b1101010 M
b10 .
0$
0*
02
1!
#2920000
0!
#2930000
b1100100 L
b11 .
1$
15
b10 /
b1100100 J
b1100111 7
b1100111 <
b1100111 I
b1100111 M
1*
12
1!
#2940000
0!
#2950000
b1100001 L
05
b11101010 )
b11101010 1
b1000111 ,
b1000111 0
b11 /
b1100001 J
b1100100 7
b1100100 <
b1100100 I
b1100100 M
b10 .
0$
0*
02
1!
#2960000
0!
#2970000
b1011110 L
b11 .
1$
15
b10 /
b1011110 J
b1100001 7
b1100001 <
b1100001 I
b1100001 M
1*
12
1!
#2980000
0!
#2990000
b1011011 L
05
b1101100 )
b1101100 1
b11101010 ,
b11101010 0
b11 /
b1011011 J
b1011110 7
b1011110 <
b1011110 I
b1011110 M
b10 .
0$
0*
02
1!
#3000000
0!
#3010000
b1011000 L
b11 .
1$
15
b10 /
b1011000 J
b1011011 7
b1011011 <
b1011011 I
b1011011 M
1*
12
1!
#3020000
0!
#3030000
b1010101 L
05
b11010 )
b11010 1
b1101100 ,
b1101100 0
b11 /
b1010101 J
b1011000 7
b1011000 <
b1011000 I
b1011000 M
b10 .
0$
0*
02
1!
#3040000
0!
#3050000
b1010010 L
b11 .
1$
15
b10 /
b1010010 J
b1010101 7
b1010101 <
b1010101 I
b1010101 M
1*
12
1!
#3060000
0!
#3070000
b1001111 L
05
b10101010 )
b10101010 1
b11010 ,
b11010 0
b11 /
b1001111 J
b1010010 7
b1010010 <
b1010010 I
b1010010 M
b10 .
0$
0*
02
1!
#3080000
0!
#3090000
b1001100 L
b11 .
1$
15
b10 /
b1001100 J
b1001111 7
b1001111 <
b1001111 I
b1001111 M
1*
12
1!
#3100000
0!
#3110000
b1001001 L
05
b111010 )
b111010 1
b10101010 ,
b10101010 0
b11 /
b1001001 J
b1001100 7
b1001100 <
b1001100 I
b1001100 M
b10 .
0$
0*
02
1!
#3120000
0!
#3130000
b1000110 L
b11 .
1$
15
b10 /
b1000110 J
b1001001 7
b1001001 <
b1001001 I
b1001001 M
1*
12
1!
#3140000
0!
#3150000
b1000011 L
05
b1001011 )
b1001011 1
b111010 ,
b111010 0
b11 /
b1000011 J
b1000110 7
b1000110 <
b1000110 I
b1000110 M
b10 .
0$
0*
02
1!
#3160000
0!
#3170000
b1000000 L
b11 .
1$
15
b10 /
b1000000 J
b1000011 7
b1000011 <
b1000011 I
b1000011 M
1*
12
1!
#3180000
0!
#3190000
b111101 L
05
b111011 )
b111011 1
b1001011 ,
b1001011 0
b11 /
b111101 J
b1000000 7
b1000000 <
b1000000 I
b1000000 M
b10 .
0$
0*
02
1!
#3200000
0!
#3210000
b111010 L
b11 .
1$
15
b10 /
b111010 J
b111101 7
b111101 <
b111101 I
b111101 M
1*
12
1!
#3220000
0!
#3230000
b110111 L
05
b11000000 )
b11000000 1
b111011 ,
b111011 0
b11 /
b110111 J
b111010 7
b111010 <
b111010 I
b111010 M
b10 .
0$
0*
02
1!
#3240000
0!
#3250000
b110100 L
b11 .
1$
15
b10 /
b110100 J
b110111 7
b110111 <
b110111 I
b110111 M
1*
12
1!
#3260000
0!
#3270000
b110001 L
05
b10110011 )
b10110011 1
b11000000 ,
b11000000 0
b11 /
b110001 J
b110100 7
b110100 <
b110100 I
b110100 M
b10 .
0$
0*
02
1!
#3280000
0!
#3290000
b101110 L
b11 .
1$
15
b10 /
b101110 J
b110001 7
b110001 <
b110001 I
b110001 M
1*
12
1!
#3300000
0!
#3310000
b101011 L
05
b10100011 )
b10100011 1
b10110011 ,
b10110011 0
b11 /
b101011 J
b101110 7
b101110 <
b101110 I
b101110 M
b10 .
0$
0*
02
1!
#3320000
0!
#3330000
b101000 L
b11 .
1$
15
b10 /
b101000 J
b101011 7
b101011 <
b101011 I
b101011 M
1*
12
1!
#3340000
0!
#3350000
b100101 L
05
b100 )
b100 1
b10100011 ,
b10100011 0
b11 /
b100101 J
b101000 7
b101000 <
b101000 I
b101000 M
b10 .
0$
0*
02
1!
#3360000
0!
#3370000
b100010 L
b11 .
1$
15
b10 /
b100010 J
b100101 7
b100101 <
b100101 I
b100101 M
1*
12
1!
#3380000
0!
#3390000
b11111 L
05
b10000 )
b10000 1
b100 ,
b100 0
b11 /
b11111 J
b100010 7
b100010 <
b100010 I
b100010 M
b10 .
0$
0*
02
1!
#3400000
0!
#3410000
b11100 L
b11 .
1$
15
b10 /
b11100 J
b11111 7
b11111 <
b11111 I
b11111 M
1*
12
1!
#3420000
0!
